1001,Ford Edge,3.5,Gasoline
1002,Mazda 3,1.6,Gasoline
1003,GMC Terrain x,3.7,Gasoline
1005,test,4.0,Diesel
1009,testwefe,6.0,Gasoline
1011,Ford Escape,1.6,Gasoline
1012,dfsafsfds,6.5,Diesel
1013,s234r24r,2.4,Other
1014,test car,4.1,Propane
1015,,2.0,Gasoline
